dump.vcd
$version Generated by VerilatedVcd $end
$timescale 1ps $end
 $scope module  $end
  $var wire 1 # buf_en $end
  $var wire 1 $ clk $end
  $var wire 1 % data_avail $end
  $var wire 2 & out_sel [1:0] $end
  $var wire 1 ' out_writing $end
  $var wire 1 ( scan_en $end
  $var wire 1 ) scan_in $end
  $var wire 1 * scan_out $end
  $scope module hidden_fsm $end
   $var wire 1 + buf_en $end
   $var wire 1 , clk $end
   $var wire 1 - cur_state[0] $end
   $var wire 1 . cur_state[1] $end
   $var wire 1 / cur_state[2] $end
   $var wire 1 0 data_avail $end
   $var wire 1 1 nstate[0] $end
   $var wire 1 2 nstate[1] $end
   $var wire 1 3 nstate[2] $end
   $var wire 2 4 out_sel [1:0] $end
   $var wire 1 5 out_writing $end
   $var wire 1 6 scan_en $end
   $var wire 1 7 scan_in $end
   $var wire 1 8 scan_out $end
  $upscope $end
 $upscope $end
$enddefinitions $end


#0
1#
1$
0%
b00 &
0'
1(
0)
0*
1+
1,
0-
0.
0/
00
01
02
13
b00 4
05
16
07
08
#10000
0$
0,
#20000
1$
1,
#30000
0$
0,
#40000
1$
1,
#50000
0$
0,
#60000
0(
06
#70000
1$
1,
#80000
0$
0,
#90000
#100000
1$
1(
1,
16
#110000
0$
0,
#120000
1$
1,
#130000
0$
0,
#140000
1$
1,
#150000
0$
0,
#160000
1$
1,
#170000
0$
0,
#180000
1$
1,
#190000
0$
0,
#200000
1$
1,
#210000
0$
0,
#220000
1%
0(
10
06
#230000
0#
1$
b01 &
1'
1*
0+
1,
1/
11
03
b01 4
15
18
#240000
0$
0,
#250000
#260000
1#
1$
b00 &
0'
1(
0*
1+
1,
0/
01
13
b00 4
05
16
08
#270000
0$
0,
#280000
1$
1,
#290000
0$
0,
#300000
1$
1,
#310000
0$
0,
#320000
0#
1$
b10 &
1'
1)
0+
1,
1-
12
03
b10 4
15
17
#330000
0$
0,
#340000
1$
b11 &
0)
1,
0-
1.
11
b11 4
07
#350000
0$
0,
#360000
1$
b01 &
1*
1,
0.
1/
02
b01 4
18
#370000
0$
0,
#380000
0%
0(
00
06
#390000
1$
b10 &
0*
1,
1-
0/
01
12
b10 4
08
#400000
0$
0,
#410000
#420000
1$
b11 &
1(
1,
0-
1.
11
b11 4
16
#430000
0$
0,
#440000
1$
b01 &
1*
1,
0.
1/
02
b01 4
18
#450000
0$
0,
#460000
1#
1$
b00 &
0'
0*
1+
1,
0/
01
13
b00 4
05
08
#470000
0$
0,
#480000
0#
1$
b10 &
1'
1)
0+
1,
1-
12
03
b10 4
15
17
#490000
0$
0,
#500000
1$
b11 &
0)
1,
0-
1.
11
b11 4
07
#510000
0$
0,
#520000
1$
b01 &
1*
1,
0.
1/
02
b01 4
18
#530000
0$
0,
#540000
1%
0(
10
06
#550000
1$
b10 &
0*
1,
1-
0/
01
12
b10 4
08
#560000
0$
0,
#570000
#580000
1$
b11 &
1(
1,
0-
1.
11
b11 4
16
#590000
0$
0,
#600000
1$
b01 &
1*
1,
0.
1/
02
b01 4
18
#610000
0$
0,
#620000
1#
1$
b00 &
0'
0*
1+
1,
0/
01
13
b00 4
05
08
#630000
0$
0,
#640000
1$
1,
#650000
0$
0,
#660000
0#
1$
b10 &
1'
1)
0+
1,
1-
12
03
b10 4
15
17
#670000
0$
0,
#680000
1$
b11 &
0)
1,
0-
1.
11
b11 4
07
#690000
0$
0,
#700000
0%
0(
00
06
#710000
1#
1$
b00 &
0'
1+
1,
1-
01
02
b00 4
05
#720000
0$
0,
#730000
#740000
0#
1$
1(
1*
0+
1,
0-
1/
13
16
18
#750000
0$
0,
#760000
1$
b01 &
1'
1,
0.
11
03
b01 4
15
#770000
0$
0,
#780000
1#
1$
b00 &
0'
0*
1+
1,
0/
01
13
b00 4
05
08
#790000
0$
0,
#800000
1$
1,
#810000
0$
0,
#820000
0#
1$
b10 &
1'
1)
0+
1,
1-
12
03
b10 4
15
17
#830000
0$
0,
#840000
1$
b11 &
0)
1,
0-
1.
11
b11 4
07
#850000
0$
0,
#860000
1%
0(
10
06
#870000
1#
1$
b00 &
0'
1+
1,
1-
01
02
13
b00 4
05
#880000
0$
0,
#890000
#900000
0#
1$
1(
1*
0+
1,
0-
1/
16
18
#910000
0$
0,
#920000
1$
b01 &
1'
1,
0.
11
03
b01 4
15
#930000
0$
0,
#940000
1#
1$
b00 &
0'
0*
1+
1,
0/
01
13
b00 4
05
08
#950000
0$
0,
#960000
0#
1$
b10 &
1'
1)
0+
1,
1-
12
03
b10 4
15
17
#970000
0$
0,
#980000
1#
1$
b00 &
0'
1+
1,
1.
02
13
b00 4
05
#990000
0$
0,
#1000000
0#
1$
0)
1*
0+
1,
0-
1/
07
18
#1010000
0$
0,
#1020000
0%
0(
00
06
#1030000
1$
1,
#1040000
0$
0,
#1050000
#1060000
1$
b01 &
1'
1(
1,
0.
11
03
b01 4
15
16
#1070000
0$
0,
#1080000
1#
1$
b00 &
0'
0*
1+
1,
0/
01
13
b00 4
05
08
#1090000
0$
0,
#1100000
1$
1,
#1110000
0$
0,
#1120000
0#
1$
b10 &
1'
1)
0+
1,
1-
12
03
b10 4
15
17
#1130000
0$
0,
#1140000
1#
1$
b00 &
0'
1+
1,
1.
02
b00 4
05
#1150000
0$
0,
#1160000
0#
1$
0)
1*
0+
1,
0-
1/
13
07
18
#1170000
0$
0,
#1180000
1%
0(
10
06
#1190000
1$
1,
#1200000
0$
0,
#1210000
#1220000
1$
b01 &
1'
1(
1,
0.
11
03
b01 4
15
16
#1230000
0$
0,
#1240000
1#
1$
b00 &
0'
0*
1+
1,
0/
01
13
b00 4
05
08
#1250000
0$
0,
#1260000
1$
1,
#1270000
0$
0,
#1280000
1$
1,
#1290000
0$
0,
#1300000
1$
1,
#1310000
0$
0,
#1320000
0#
1$
b10 &
1'
1)
0+
1,
1-
12
03
b10 4
15
17
#1330000
0$
0,
#1340000
0%
0(
00
06
#1350000
1$
b11 &
1,
0-
1.
11
b11 4
#1360000
0$
0,
#1370000
#1380000
1$
b00 &
0'
1(
1*
1,
1-
0.
1/
01
02
13
b00 4
05
16
18
#1390000
0$
0,
#1400000
1#
1$
0*
1+
1,
1.
0/
03
08
#1410000
0$
0,
#1420000
0#
1$
1*
0+
1,
1/
13
18
#1430000
0$
0,
#1440000
1$
0)
1,
0-
07
#1450000
0$
0,
#1460000
1$
b01 &
1'
1,
0.
11
03
b01 4
15
#1470000
0$
0,
#1480000
1$
b10 &
1)
0*
1,
1-
0/
01
12
b10 4
17
08
#1490000
0$
0,
#1500000
1%
0(
10
06
#1510000
1$
b11 &
1,
0-
1.
11
b11 4
#1520000
0$
0,
#1530000
#1540000
1$
b00 &
0'
1(
1*
1,
1-
0.
1/
01
02
13
b00 4
05
16
18
#1550000
0$
0,
#1560000
1#
1$
0*
1+
1,
1.
0/
08
#1570000
0$
0,
#1580000
0#
1$
1*
0+
1,
1/
18
#1590000
0$
0,
#1600000
1$
1,
#1610000
0$
0,
#1620000
1$
0)
1,
0-
07
#1630000
0$
0,
#1640000
1$
1)
1,
1-
0.
17
#1650000
0$
0,
#1660000
0%
0(
00
06
#1670000
1$
1,
#1680000
0$
0,
#1690000
#1700000
1#
1$
1(
0*
1+
1,
1.
0/
03
16
08
#1710000
0$
0,
#1720000
0#
1$
1*
0+
1,
1/
13
18
#1730000
0$
0,
#1740000
1$
1,
#1750000
0$
0,
#1760000
1$
1,
#1770000
0$
0,
#1780000
1$
0)
1,
0-
07
#1790000
0$
0,
#1800000
1$
1)
1,
1-
0.
17
#1810000
0$
0,
#1820000
1%
0(
10
06
#1830000
1$
1,
#1840000
0$
0,
#1850000
#1860000
1#
1$
1(
0*
1+
1,
1.
0/
16
08
#1870000
0$
0,
#1880000
0#
1$
1*
0+
1,
1/
18
#1890000
0$
0,
#1900000
1$
1,
#1910000
0$
0,
#1920000
1$
0)
1,
0-
07
#1930000
0$
0,
#1940000
1$
1)
1,
1-
0.
17
#1950000
0$
0,
#1960000
1#
1$
0*
1+
1,
1.
0/
08
#1970000
0$
0,
#1980000
0%
0(
00
03
06
#1990000
1$
1,
0-
0.
13
#2000000
0$
0,
#2010000
#2020000
0#
1$
b10 &
1'
1(
0+
1,
1-
12
03
b10 4
15
16
#2030000
0$
0,
#2040000
1#
1$
b00 &
0'
1+
1,
1.
02
b00 4
05
#2050000
0$
0,
#2060000
0#
1$
1*
0+
1,
1/
13
18
#2070000
0$
0,
#2080000
1$
0)
1,
0-
07
#2090000
0$
0,
#2100000
1$
1)
1,
1-
0.
17
#2110000
0$
0,
#2120000
1#
1$
0*
1+
1,
1.
0/
03
08
#2130000
0$
0,
#2140000
1%
0(
10
13
06
#2150000
0#
1$
b01 &
1'
1*
0+
1,
0-
0.
1/
11
03
b01 4
15
18
#2160000
0$
0,
#2170000
#2180000
1$
b10 &
1(
0*
1,
1-
0/
01
12
b10 4
16
08
#2190000
0$
0,
#2200000
1#
1$
b00 &
0'
1+
1,
1.
02
13
b00 4
05
#2210000
0$
0,
#2220000
0#
1$
1*
0+
1,
1/
18
#2230000
0$
0,
#2240000
1$
1,
#2250000
0$
0,
#2260000
1$
1,
#2270000
0$
0,
#2280000
1$
1,
#2290000
0$
0,
#2300000
0%
0(
00
06
#2310000
1$
1,
#2320000
0$
0,
#2330000
#2340000
1$
1(
1,
16
#2350000
0$
0,
#2360000
1$
1,
#2370000
0$
0,
#2380000
1$
1,
#2390000
0$
0,
#2400000
1$
1,
#2410000
0$
0,
#2420000
1$
1,
#2430000
0$
0,
#2440000
1$
1,
#2450000
0$
0,
#2460000
1%
0(
10
06
#2470000
1$
1,
#2480000
0$
0,
#2490000
#2500000
1$
1(
1,
16
