dump.vcd
$version Generated by VerilatedVcd $end
$timescale 1ps $end
 $scope module  $end
  $var wire 4 # a_in [3:0] $end
  $var wire 4 $ b_in [3:0] $end
  $var wire 1 % clk $end
  $var wire 1 & scan_en $end
  $var wire 1 ' scan_in $end
  $var wire 1 ( scan_out $end
  $var wire 5 ) x_out [4:0] $end
  $scope module adder $end
   $var wire 4 * a_in [3:0] $end
   $var wire 1 + a_reg[0] $end
   $var wire 1 , a_reg[1] $end
   $var wire 1 - a_reg[2] $end
   $var wire 1 . a_reg[3] $end
   $var wire 4 / b_in [3:0] $end
   $var wire 1 0 b_reg[0] $end
   $var wire 1 1 b_reg[1] $end
   $var wire 1 2 b_reg[2] $end
   $var wire 1 3 b_reg[3] $end
   $var wire 1 4 clk $end
   $var wire 1 5 scan_en $end
   $var wire 1 6 scan_in $end
   $var wire 1 7 scan_out $end
   $var wire 5 8 x_out [4:0] $end
  $upscope $end
 $upscope $end
$enddefinitions $end


#0
b0000 #
b0000 $
1%
1&
0'
0(
b00000 )
b0000 *
0+
0,
0-
0.
b0000 /
00
01
02
03
14
15
06
07
b00000 8
#10000
0%
04
#20000
1%
14
#30000
0%
04
#40000
1%
1'
b00001 )
14
16
b00001 8
#50000
0%
04
#60000
1%
0'
b00010 )
14
06
b00010 8
#70000
0%
04
#80000
1%
1'
b00101 )
14
16
b00101 8
#90000
0%
04
#100000
1%
b01011 )
14
b01011 8
#110000
0%
04
#120000
1%
0'
b10110 )
14
06
b10110 8
#130000
0%
04
#140000
1%
b01100 )
1+
14
b01100 8
#150000
0%
04
#160000
1%
b11000 )
0+
1,
14
b11000 8
#170000
0%
04
#180000
1%
b10000 )
1+
0,
1-
14
b10000 8
#190000
0%
04
#200000
1%
b00000 )
1,
0-
1.
14
b00000 8
#210000
0%
04
#220000
1%
0+
1-
0.
10
14
#230000
0%
04
#240000
1%
0,
1.
00
11
14
#250000
0%
04
#260000
1%
0&
b01110 )
0-
0.
01
14
05
b01110 8
#270000
0%
04
#280000
1%
1&
b11100 )
14
15
b11100 8
#290000
0%
04
#300000
1%
b11000 )
1+
14
b11000 8
#310000
0%
04
#320000
1%
b10000 )
1,
14
b10000 8
#330000
0%
04
#340000
1%
b00000 )
1-
14
b00000 8
#350000
0%
04
#360000
1%
0+
1.
14
#370000
0%
04
#380000
1%
0,
10
14
#390000
0%
04
#400000
1%
0-
11
14
#410000
0%
04
#420000
1%
0.
12
14
#430000
0%
04
#440000
1%
1(
00
13
14
17
#450000
0%
04
#460000
1%
01
14
#470000
0%
04
#480000
1%
02
14
#490000
0%
04
#500000
1%
0(
03
14
07
#510000
0%
04
#520000
1%
14
#530000
0%
04
#540000
1%
14
#550000
0%
04
#560000
1%
1'
b00001 )
14
16
b00001 8
#570000
0%
04
#580000
1%
0'
b00010 )
14
06
b00010 8
#590000
0%
04
#600000
1%
b00100 )
14
b00100 8
#610000
0%
04
#620000
1%
1'
b01001 )
14
16
b01001 8
#630000
0%
04
#640000
1%
0'
b10010 )
14
06
b10010 8
#650000
0%
04
#660000
1%
1'
b00101 )
1+
14
16
b00101 8
#670000
0%
04
#680000
1%
0'
b01010 )
0+
1,
14
06
b01010 8
#690000
0%
04
#700000
1%
b10100 )
0,
1-
14
b10100 8
#710000
0%
04
#720000
1%
b01000 )
1+
0-
1.
14
b01000 8
#730000
0%
04
#740000
1%
b10000 )
0+
1,
0.
10
14
b10000 8
#750000
0%
04
#760000
1%
b00000 )
1+
0,
1-
00
11
14
b00000 8
#770000
0%
04
#780000
1%
0+
1,
0-
1.
01
12
14
#790000
0%
04
#800000
1%
0&
b01110 )
0,
0.
02
14
05
b01110 8
#810000
0%
04
#820000
1%
1&
b11100 )
14
15
b11100 8
#830000
0%
04
#840000
1%
b11000 )
1+
14
b11000 8
#850000
0%
04
#860000
1%
b10000 )
1,
14
b10000 8
#870000
0%
04
#880000
1%
b00000 )
1-
14
b00000 8
#890000
0%
04
#900000
1%
0+
1.
14
#910000
0%
04
#920000
1%
0,
10
14
#930000
0%
04
#940000
1%
0-
11
14
#950000
0%
04
#960000
1%
0.
12
14
#970000
0%
04
#980000
1%
1(
00
13
14
17
#990000
0%
04
#1000000
1%
01
14
#1010000
0%
04
#1020000
1%
02
14
#1030000
0%
04
#1040000
1%
0(
03
14
07
#1050000
0%
04
#1060000
1%
14
#1070000
0%
04
#1080000
1%
1'
b00001 )
14
16
b00001 8
#1090000
0%
04
#1100000
1%
0'
b00010 )
14
06
b00010 8
#1110000
0%
04
#1120000
1%
b00100 )
14
b00100 8
#1130000
0%
04
#1140000
1%
b01000 )
14
b01000 8
#1150000
0%
04
#1160000
1%
b10000 )
14
b10000 8
#1170000
0%
04
#1180000
1%
1'
b00001 )
1+
14
16
b00001 8
#1190000
0%
04
#1200000
1%
0'
b00010 )
0+
1,
14
06
b00010 8
#1210000
0%
04
#1220000
1%
b00100 )
0,
1-
14
b00100 8
#1230000
0%
04
#1240000
1%
b01000 )
0-
1.
14
b01000 8
#1250000
0%
04
#1260000
1%
b10000 )
0.
10
14
b10000 8
#1270000
0%
04
#1280000
1%
b00000 )
1+
00
11
14
b00000 8
#1290000
0%
04
#1300000
1%
0+
1,
01
12
14
#1310000
0%
04
#1320000
1%
1(
0,
1-
02
13
14
17
#1330000
0%
04
#1340000
1%
0&
0(
b01100 )
0-
03
14
05
07
b01100 8
#1350000
0%
04
#1360000
1%
1&
b11000 )
14
15
b11000 8
#1370000
0%
04
#1380000
1%
b10000 )
1+
14
b10000 8
#1390000
0%
04
#1400000
1%
b00000 )
1,
14
b00000 8
#1410000
0%
04
#1420000
1%
0+
1-
14
#1430000
0%
04
#1440000
1%
0,
1.
14
#1450000
0%
04
#1460000
1%
0-
10
14
#1470000
0%
04
#1480000
1%
0.
11
14
#1490000
0%
04
#1500000
1%
00
12
14
#1510000
0%
04
#1520000
1%
1(
01
13
14
17
#1530000
0%
04
#1540000
1%
02
14
#1550000
0%
04
#1560000
1%
0(
03
14
07
